[
    {
        "name": "Going Merry",
        "type": "Pirate Ship",
        "power": 5000,
        "ability": "unknown shipwreck"
    },
    {
        "name": "Thousand Sunny",
        "type": "Pirate Ship",
        "power": 20000,
        "ability": "Coup de burst"
    }
]